{
  "apiVersion": "opentestfactory.org/v1alpha1",
  "kind": "Workflow",
  "metadata": {
    "name": "suite tests api"
  },
  "defaults": {
    "runs-on": "junit"
  },
  "jobs": {
    "explicitJob": {
      "runs-on": "junit",
      "generator": "tm.squashtest.org/tm.generator@v1",
      "with": {
        "testPlanUuid": "8c03132c-98a9-4db2-84f5-6ddf1b8f76ee",
        "testPlanType": "TestSuite",
        "squashTMUrl": "http://192.168.102.151:8080/squash",
        "squashTMAutomatedServerLogin": "testeur",
        "squashTMAutomatedServerPassword": "testeur"
      }
    }
  }
}
